     0.00000     16.31471
     1.00000     12.33576
     2.00000     13.04094
     3.00000     11.94658
     4.00000     12.66584
     5.00000     12.87621
     6.00000     11.74439
     7.00000     12.79007
     8.00000     12.43795
     9.00000     11.07560
    10.00000     11.94003
    11.00000     10.59671
    12.00000     11.63501
    13.00000     10.51278
    14.00000     11.11081
    15.00000     11.04738
    16.00000     11.13752
    17.00000     11.28349
    18.00000     11.36288
    19.00000     11.15797
    20.00000     11.04423
    21.00000     10.93612
    22.00000     10.79856
    23.00000     10.69835
    24.00000     10.60896
    25.00000     10.58254
    26.00000     10.44507
    27.00000     10.33239
    28.00000     10.24379
    29.00000     10.16695
    30.00000     10.07855
    31.00000     10.04575
    32.00000      9.99340
    33.00000     10.04307
    34.00000     10.08139
    35.00000     10.08606
    36.00000     10.05782
    37.00000     10.08153
    38.00000     10.20074
    39.00000     10.30443
    40.00000     10.63535
    41.00000     10.77065
    42.00000     11.06680
    43.00000     11.46954
    44.00000     11.33429
    45.00000     11.85405
    46.00000     11.87045
    47.00000     11.89540
    48.00000     12.08695
    49.00000     11.52615
    50.00000     12.47184
    51.00000     11.40683
    52.00000     11.85084
    53.00000     11.20510
    54.00000     11.22075
    55.00000     11.19216
    56.00000     10.63750
    57.00000     10.71486
    58.00000     10.38017
    59.00000     10.06995
    60.00000      9.98641
    61.00000      9.66059
    62.00000      9.58619
    63.00000      9.45348
    64.00000      9.41896
    65.00000      9.50252
    66.00000      9.45111
    67.00000      9.33270
    68.00000      9.14564
    69.00000      9.02898
    70.00000      8.99079
    71.00000      8.97704
    72.00000      8.94773
    73.00000      9.06646
    74.00000      9.22133
    75.00000      9.49774
    76.00000      9.77432
    77.00000      9.69935
    78.00000      9.56830
    79.00000      9.59627
    80.00000      9.56497
    81.00000      9.46016
    82.00000      9.49006
    83.00000      9.33073
    84.00000      9.00954
    85.00000      8.89621
    86.00000      8.75332
    87.00000      8.21004
    88.00000      8.97261
    89.00000      7.71498
    90.00000      9.07205
    91.00000      8.02302
    92.00000      9.14196
    93.00000      9.19480
    94.00000      8.07731
    95.00000      9.68778
    96.00000      9.59846
    97.00000      8.76142
    98.00000     10.14280
    99.00000     10.31979
   100.00000     12.60071
   101.00000     10.28292
   102.00000     10.06779
   103.00000      8.61472
   104.00000      9.40935
   105.00000      9.35765
   106.00000      7.76334
   107.00000      8.77526
   108.00000      8.67234
   109.00000      7.62100
   110.00000      8.63567
   111.00000      7.34858
   112.00000      8.42926
   113.00000      7.62792
   114.00000      8.16273
   115.00000      8.13655
   116.00000      8.29765
   117.00000      8.38583
   118.00000      8.16617
   119.00000      8.01898
   120.00000      7.87187
   121.00000      7.80232
   122.00000      7.65715
   123.00000      7.45458
   124.00000      7.40205
   125.00000      7.40100
   126.00000      7.34369
   127.00000      7.30195
   128.00000      7.30090
   129.00000      7.39196
   130.00000      7.38412
   131.00000      7.34890
   132.00000      7.43736
   133.00000      7.51241
   134.00000      7.44887
   135.00000      7.50694
   136.00000      7.50737
   137.00000      7.80138
   138.00000      8.21217
   139.00000      8.56050
   140.00000      8.98034
   141.00000      8.93816
   142.00000      9.12765
   143.00000      9.52233
   144.00000      8.90730
   145.00000      9.98491
   146.00000      9.80255
   147.00000      9.29908
   148.00000     10.69390
   149.00000     10.30514
   150.00000     11.10612
   151.00000     10.30514
   152.00000     10.69390
   153.00000      9.29908
   154.00000      9.80255
   155.00000      9.98491
   156.00000      8.90730
   157.00000      9.52232
   158.00000      9.12765
   159.00000      8.93816
   160.00000      8.98034
   161.00000      8.56050
   162.00000      8.21217
   163.00000      7.80138
   164.00000      7.50737
   165.00000      7.50694
   166.00000      7.44887
   167.00000      7.51241
   168.00000      7.43736
   169.00000      7.34890
   170.00000      7.38412
   171.00000      7.39196
   172.00000      7.30090
   173.00000      7.30195
   174.00000      7.34369
   175.00000      7.40100
   176.00000      7.40205
   177.00000      7.45458
   178.00000      7.65715
   179.00000      7.80232
   180.00000      7.87187
   181.00000      8.01898
   182.00000      8.16617
   183.00000      8.38583
   184.00000      8.29765
   185.00000      8.13655
   186.00000      8.16273
   187.00000      7.62792
   188.00000      8.42926
   189.00000      7.34858
   190.00000      8.63567
   191.00000      7.62100
   192.00000      8.67234
   193.00000      8.77526
   194.00000      7.76334
   195.00000      9.35765
   196.00000      9.40935
   197.00000      8.61472
   198.00000     10.06779
   199.00000     10.28292
   200.00000     12.59982
   201.00000     10.31979
   202.00000     10.14280
   203.00000      8.76142
   204.00000      9.59846
   205.00000      9.68778
   206.00000      8.07731
   207.00000      9.19480
   208.00000      9.14196
   209.00000      8.02302
   210.00000      9.07205
   211.00000      7.71498
   212.00000      8.97261
   213.00000      8.21004
   214.00000      8.75332
   215.00000      8.89621
   216.00000      9.00954
   217.00000      9.33073
   218.00000      9.49006
   219.00000      9.46016
   220.00000      9.56497
   221.00000      9.59627
   222.00000      9.56830
   223.00000      9.69935
   224.00000      9.77432
   225.00000      9.49774
   226.00000      9.22133
   227.00000      9.06646
   228.00000      8.94773
   229.00000      8.97704
   230.00000      8.99079
   231.00000      9.02898
   232.00000      9.14564
   233.00000      9.33270
   234.00000      9.45111
   235.00000      9.50252
   236.00000      9.41896
   237.00000      9.45348
   238.00000      9.58619
   239.00000      9.66059
   240.00000      9.98641
   241.00000     10.06995
   242.00000     10.38017
   243.00000     10.71486
   244.00000     10.63750
   245.00000     11.19216
   246.00000     11.22075
   247.00000     11.20510
   248.00000     11.85084
   249.00000     11.40683
   250.00000     12.47183
   251.00000     11.52615
   252.00000     12.08695
   253.00000     11.89540
   254.00000     11.87045
   255.00000     11.85405
   256.00000     11.33429
   257.00000     11.46954
   258.00000     11.06680
   259.00000     10.77065
   260.00000     10.63535
   261.00000     10.30443
   262.00000     10.20074
   263.00000     10.08153
   264.00000     10.05782
   265.00000     10.08606
   266.00000     10.08139
   267.00000     10.04307
   268.00000      9.99340
   269.00000     10.04575
   270.00000     10.07855
   271.00000     10.16695
   272.00000     10.24379
   273.00000     10.33239
   274.00000     10.44507
   275.00000     10.58254
   276.00000     10.60896
   277.00000     10.69835
   278.00000     10.79856
   279.00000     10.93612
   280.00000     11.04423
   281.00000     11.15797
   282.00000     11.36288
   283.00000     11.28349
   284.00000     11.13752
   285.00000     11.04738
   286.00000     11.11081
   287.00000     10.51278
   288.00000     11.63501
   289.00000     10.59671
   290.00000     11.94003
   291.00000     11.07560
   292.00000     12.43795
   293.00000     12.79007
   294.00000     11.74439
   295.00000     12.87621
   296.00000     12.66584
   297.00000     11.94658
   298.00000     13.04094
   299.00000     12.33576
   300.00000     16.31472
   301.00000     12.37876
   302.00000     13.10975
   303.00000     12.14781
   304.00000     12.98052
   305.00000     13.43256
   306.00000     12.33883
   307.00000     13.44740
   308.00000     13.14556
   309.00000     12.15219
   310.00000     13.06583
   311.00000     11.87847
   312.00000     12.82363
   313.00000     11.96545
   314.00000     12.51390
   315.00000     12.43953
   316.00000     12.71786
   317.00000     12.67147
   318.00000     12.50438
   319.00000     12.38418
   320.00000     12.25901
   321.00000     12.19038
   322.00000     12.04938
   323.00000     11.96561
   324.00000     11.90358
   325.00000     11.88965
   326.00000     11.83683
   327.00000     11.75875
   328.00000     11.75281
   329.00000     11.76321
   330.00000     11.72281
   331.00000     11.68937
   332.00000     11.70952
   333.00000     11.74516
   334.00000     11.74011
   335.00000     11.74316
   336.00000     11.69668
   337.00000     11.78098
   338.00000     11.86652
   339.00000     11.78306
   340.00000     11.88092
   341.00000     11.88546
   342.00000     11.89409
   343.00000     11.94782
   344.00000     11.85258
   345.00000     11.80281
   346.00000     12.01843
   347.00000     12.08526
   348.00000     12.15149
   349.00000     12.48526
   350.00000     13.52084
   351.00000     12.80412
   352.00000     12.58200
   353.00000     12.62092
   354.00000     12.62889
   355.00000     12.70007
   356.00000     12.60410
   357.00000     12.84654
   358.00000     13.05997
   359.00000     13.05692
   360.00000     13.06567
   361.00000     13.16072
   362.00000     13.22184
   363.00000     13.35604
   364.00000     13.44372
   365.00000     13.42450
   366.00000     13.44091
   367.00000     13.55782
   368.00000     13.60157
   369.00000     13.82544
   370.00000     13.91491
   371.00000     14.24880
   372.00000     14.48554
   373.00000     14.76530
   374.00000     14.97262
   375.00000     15.48110
   376.00000     15.85931
   377.00000     15.76022
   378.00000     15.60538
   379.00000     15.77250
   380.00000     15.94006
   381.00000     16.38986
   382.00000     16.88081
   383.00000     16.93663
   384.00000     16.89612
   385.00000     16.97464
   386.00000     16.93776
   387.00000     16.48389
   388.00000     17.41659
   389.00000     16.29392
   390.00000     17.17392
   391.00000     16.09292
   392.00000     16.98103
   393.00000     17.14191
   394.00000     16.05829
   395.00000     17.07842
   396.00000     17.40685
   397.00000     15.53230
   398.00000     15.50506
   399.00000     14.37705
   400.00000     21.27110
   401.00000     14.33931
   402.00000     15.45369
   403.00000     15.35190
   404.00000     17.15057
   405.00000     16.85394
   406.00000     15.88932
   407.00000     16.82627
   408.00000     16.39102
   409.00000     15.13878
   410.00000     16.16130
   411.00000     15.34583
   412.00000     16.87578
   413.00000     15.78969
   414.00000     16.61769
   415.00000     16.92813
   416.00000     16.94761
   417.00000     16.88997
   418.00000     17.16059
   419.00000     17.23623
   420.00000     17.48871
   421.00000     17.44083
   422.00000     17.21783
   423.00000     17.27136
   424.00000     17.48158
   425.00000     17.64660
   426.00000     17.52118
   427.00000     17.43167
   428.00000     17.43365
   429.00000     17.67568
   430.00000     17.75179
   431.00000     17.69557
   432.00000     17.27566
   433.00000     17.17999
   434.00000     17.13520
   435.00000     17.10864
   436.00000     17.11653
   437.00000     17.09002
   438.00000     17.18179
   439.00000     17.50034
   440.00000     17.72701
   441.00000     17.76591
   442.00000     17.87766
   443.00000     18.05556
   444.00000     18.25167
   445.00000     18.56666
   446.00000     19.12700
   447.00000     19.88813
   448.00000     21.27165
   449.00000     20.93386
   450.00000     21.21313
   451.00000     20.64948
   452.00000     20.97069
   453.00000     19.83128
   454.00000     18.91636
   455.00000     18.48361
   456.00000     18.27362
   457.00000     18.30090
   458.00000     18.36663
   459.00000     18.44992
   460.00000     18.82864
   461.00000     18.68181
   462.00000     18.59385
   463.00000     18.84072
   464.00000     19.31173
   465.00000     20.03779
   466.00000     20.43505
   467.00000     20.10009
   468.00000     19.51978
   469.00000     18.85947
   470.00000     18.38041
   471.00000     18.35502
   472.00000     18.40653
   473.00000     18.40085
   474.00000     18.55418
   475.00000     18.84489
   476.00000     19.04976
   477.00000     19.35651
   478.00000     19.82225
   479.00000     20.09402
   480.00000     20.44596
   481.00000     20.98522
   482.00000     21.76108
   483.00000     22.85880
   484.00000     23.48809
   485.00000     23.10804
   486.00000     23.03599
   487.00000     23.79134
   488.00000     25.55267
   489.00000     24.12506
   490.00000     23.90984
   491.00000     23.08430
   492.00000     24.53631
   493.00000     24.79977
   494.00000     23.57976
   495.00000     24.27895
   496.00000     24.03094
   497.00000     22.10139
   498.00000     23.27086
   499.00000     23.24373
   500.00000     28.24197
