cpu-bind=MASK - cn845, task  0  0 [397237]: mask 0xffffffffffff set
SLURM_JOB_NUM_NODES:  1
SLURM_CPUS_PER_TASK:  24
N threads:  1
1
Calculating phonons for quartz
N qpts: 50000
N repeats: 1
N cpus: 1
 N threads: 1
Freqs for qpt 5000:
[  8.56122879   9.42286473  14.05278676  21.35510204  23.99328545  29.92025291  34.52639058  37.42283064  38.63630595  41.6311639  43.996185    48.45674986  51.10433744  52.7495115   56.0849575  66.7194873   76.39234121  85.34053658 100.610366   101.7428989 104.43451612 133.08620702 133.28546892 133.65832934 143.46751377 144.97216295 146.49992945] millielectron_volt
	Command being timed: "python run_euphonic_benchmark.py 1 1"
	User time (seconds): 267.90
	System time (seconds): 0.46
	Percent of CPU this job got: 99%
	Elapsed (wall clock) time (h:mm:ss or m:ss): 4:28.49
	Average shared text size (kbytes): 0
	Average unshared data size (kbytes): 0
	Average stack size (kbytes): 0
	Average total size (kbytes): 0
	Maximum resident set size (kbytes): 739856
	Average resident set size (kbytes): 0
	Major (requiring I/O) page faults: 0
	Minor (reclaiming a frame) page faults: 71242
	Voluntary context switches: 618
	Involuntary context switches: 434
	Swaps: 0
	File system inputs: 0
	File system outputs: 8
	Socket messages sent: 0
	Socket messages received: 0
	Signals delivered: 0
	Page size (bytes): 4096
	Exit status: 0
