cpu-bind=MASK - cn848, task  0  0 [131167]: mask 0xffffffffffff set
SLURM_JOB_NUM_NODES:  1
SLURM_CPUS_PER_TASK:  24
N threads:  1
1
Calculating phonons for La2Zr2O7
N qpts: 50000
N repeats: 1
N cpus: 12
 N threads: 1
Freqs for qpt 5000:
[ 7.1677918   8.19774224  9.87614925 10.13480503 11.09406393 11.48387904 12.91856422 13.4924878  15.85092278 15.92938824 16.04045734 16.34317368 18.06781274 20.14961584 20.49924821 21.32354859 22.15261791 22.81037812 23.06424483 23.27945201 23.85025798 24.26195761 25.00577369 26.58560879 28.39390092 28.76206095 30.26283816 31.60931964 32.4912992  33.1839193 34.2955739  34.75022371 36.52337206 37.18172669 38.70275424 38.84699893 41.01103413 41.35884032 42.09382664 42.80747573 43.54619077 43.77808123 46.92546389 47.16407515 48.52204291 48.92168145 50.85881548 51.05676048 51.2882745  51.8531758  56.28305093 56.39225643 64.28934494 66.18741983 66.52347123 66.71596213 67.02994256 68.0290158  69.20227429 69.58506454 70.05105134 70.14626232 80.84062496 88.20454219 91.99949984 92.5012414 ] millielectron_volt
	Command being timed: "python run_euphonic_benchmark.py 12 1"
	User time (seconds): 88.27
	System time (seconds): 13.00
	Percent of CPU this job got: 555%
	Elapsed (wall clock) time (h:mm:ss or m:ss): 0:18.23
	Average shared text size (kbytes): 0
	Average unshared data size (kbytes): 0
	Average stack size (kbytes): 0
	Average total size (kbytes): 0
	Maximum resident set size (kbytes): 10386216
	Average resident set size (kbytes): 0
	Major (requiring I/O) page faults: 0
	Minor (reclaiming a frame) page faults: 3450722
	Voluntary context switches: 122128
	Involuntary context switches: 1486
	Swaps: 0
	File system inputs: 0
	File system outputs: 16
	Socket messages sent: 0
	Socket messages received: 0
	Signals delivered: 0
	Page size (bytes): 4096
	Exit status: 0

def main():
    import sys
    if len(sys.argv) > 2:
        nthreads = int(sys.argv[2])
    else:
        nthreads = 0
    if len(sys.argv) > 1:
        nprocs = int(sys.argv[1])
    else:
        nprocs = int(1)

    import ctypes
    mkl = ctypes.cdll.LoadLibrary('libmkl_rt.so')
    if nthreads > 0:
        mkl.MKL_Set_Num_Threads(nthreads)

    from euphonic.data.interpolation import InterpolationData
    import numpy as np
    seedname = 'La2Zr2O7'

#    qpts = np.tile(np.loadtxt('10meV_qpts.txt'), (5,1))
    qpts = np.load('../../50000_qpts.npy')
    idata = InterpolationData(seedname)
    N = 1
    print(('Calculating phonons for {:s}\nN qpts: {:d}\nN repeats: {:d}\nN '
           'cpus: {:d}\n N threads: {:d}').format(seedname, len(qpts), N,
                                                  nprocs, nthreads))
    for i in range(N):
        idata.calculate_fine_phonons(qpts, asr='reciprocal', nprocs=nprocs)
    print('Freqs for qpt 5000:')
    print(idata.freqs[5000])

if __name__ == '__main__':
    main()
