cpu-bind=MASK - cn789, task  0  0 [295953]: mask 0xffffffffffff set
SLURM_JOB_NUM_NODES:  1
SLURM_CPUS_PER_TASK:  24
N threads:  1
1
Calculating phonons for AmSulf_298K
N qpts: 50000
N repeats: 1
N cpus: 4
 N threads: 1
Freqs for qpt 5000:
[ -6.17386476  -5.45938691  -1.39185153   1.29484925   4.27784055   5.21875827   5.8799506    6.01482266   7.56746376   7.9778358   8.60714909   9.28461094   9.70470389  10.1338587   10.89831724  10.99538199  12.44884776  12.82137864  13.33801581  13.52536688  15.7866945   16.23044396  16.44207543  16.71023164  19.45793617  19.64150261  19.87719999  19.92712377  21.31235403  21.65936616  21.71766676  22.2609935   22.90675893  23.04177933  23.23464746  23.66032316  24.52364175  24.87599046  25.02244738  25.10183608  25.94980685  26.26104966  26.38947215  26.46811386  29.83365503  30.16442165  30.58749528  31.09691161  34.03192185  34.24710188  34.25604662  34.47245549  34.90074468  34.97073443  35.32976531  35.41085014  44.89295781  45.07733826  45.12000977  45.26738812  48.04086863  48.060192    48.42820107  48.5032322   51.16735108  51.31690055  51.51820453  51.53551243  51.94827506  52.33074131  52.42962402  52.75428467  54.09351885  54.11610013  54.15237784  54.2151987   55.93356922  56.11473256  56.14198257  56.29132974  71.81292002  71.84930977  71.95647364  72.00022894  72.81493744  72.90922182  72.98437627  73.07938333  75.45389893  75.51832252  75.63129837  75.71669189 115.78156038 115.79946768 115.87108953 115.88820401 129.38191084 129.51566935 129.65709638 129.98161216 131.16576039 131.40633282 131.8156983  132.330543   135.20382058 135.43947028 135.76699864 136.15285221 172.67919597 172.98159519 173.21031836 173.46392776 173.60643481 173.68131508 173.91351949 174.16346988 176.83350387 176.90436521 177.07493626 177.26448712 177.43399248 177.67414434 177.94960964 178.23753112 180.73471813 180.83339944 181.21775432 181.45729054 188.32359737 188.39437532 188.61673213 188.68835853 204.73890371 204.89916832 205.1862618 205.44777868 207.4797434  207.65304297 207.84508442 207.96316236 209.03626926 209.19666473 209.4392328  209.60237327 211.09607441 211.42881033 211.63790061 211.8911176  371.12429088 371.35002251 371.62258612 371.82859658 388.80701929 388.88841819 389.06391085 389.13955231 392.15641783 392.18938825 392.20789873 392.22735132 392.92979201 392.96795628 393.11935825 393.12717854 394.8495804 395.07938159 395.56149778 395.73491661 400.93051285 400.97828645 401.06704195 401.10444142 404.12329388 404.41757198 404.56504659 404.95066264 422.52205116 422.62092216 422.64613098 422.77463272] millielectron_volt
	Command being timed: "python run_euphonic_benchmark.py 4 1"
	User time (seconds): 7129.60
	System time (seconds): 3387.92
	Percent of CPU this job got: 354%
	Elapsed (wall clock) time (h:mm:ss or m:ss): 49:30.95
	Average shared text size (kbytes): 0
	Average unshared data size (kbytes): 0
	Average stack size (kbytes): 0
	Average total size (kbytes): 0
	Maximum resident set size (kbytes): 76506300
	Average resident set size (kbytes): 0
	Major (requiring I/O) page faults: 85
	Minor (reclaiming a frame) page faults: 802496573
	Voluntary context switches: 961931
	Involuntary context switches: 11505
	Swaps: 0
	File system inputs: 92072
	File system outputs: 16
	Socket messages sent: 0
	Socket messages received: 0
	Signals delivered: 0
	Page size (bytes): 4096
	Exit status: 0

def main():
    import sys
    if len(sys.argv) > 2:
        nthreads = int(sys.argv[2])
    else:
        nthreads = 0
    if len(sys.argv) > 1:
        nprocs = int(sys.argv[1])
    else:
        nprocs = int(1)

    import ctypes
    mkl = ctypes.cdll.LoadLibrary('libmkl_rt.so')
    if nthreads > 0:
        mkl.MKL_Set_Num_Threads(nthreads)

    from euphonic.data.interpolation import InterpolationData
    import numpy as np
    seedname = 'AmSulf_298K'

#    qpts = np.tile(np.loadtxt('10meV_qpts.txt'), (5,1))
    qpts = np.load('../../50000_qpts.npy')
#    qpts = np.random.rand(50000, 3)
    idata = InterpolationData(seedname)
    N = 1
    print(('Calculating phonons for {:s}\nN qpts: {:d}\nN repeats: {:d}\nN '
           'cpus: {:d}\n N threads: {:d}').format(seedname, len(qpts), N,
                                                  nprocs, nthreads))
    for i in range(N):
        idata.calculate_fine_phonons(qpts, asr='reciprocal', nprocs=nprocs, eta_scale=0.4)
    print('Freqs for qpt 5000:')
    print(idata.freqs[5000])

if __name__ == '__main__':
    main()
