cpu-bind=MASK - cn844, task  0  0 [137770]: mask 0xffffffffffff set
SLURM_JOB_NUM_NODES:  1
SLURM_CPUS_PER_TASK:  24
N threads:  1
1
Calculating phonons for Nb-242424-s0.25-NCP19-vib-disp
N qpts: 50000
N repeats: 1
N cpus: 2
 N threads: 1
Freqs for qpt 5000:
[18.21503624 21.05990563 23.4112816 ] millielectron_volt
	Command being timed: "python run_euphonic_benchmark.py 2 1"
	User time (seconds): 35.59
	System time (seconds): 0.56
	Percent of CPU this job got: 193%
	Elapsed (wall clock) time (h:mm:ss or m:ss): 0:18.71
	Average shared text size (kbytes): 0
	Average unshared data size (kbytes): 0
	Average stack size (kbytes): 0
	Average total size (kbytes): 0
	Maximum resident set size (kbytes): 143572
	Average resident set size (kbytes): 0
	Major (requiring I/O) page faults: 0
	Minor (reclaiming a frame) page faults: 128981
	Voluntary context switches: 4213
	Involuntary context switches: 400
	Swaps: 0
	File system inputs: 0
	File system outputs: 8
	Socket messages sent: 0
	Socket messages received: 0
	Signals delivered: 0
	Page size (bytes): 4096
	Exit status: 0

def main():
    import sys
    if len(sys.argv) > 2:
        nthreads = int(sys.argv[2])
    else:
        nthreads = 0
    if len(sys.argv) > 1:
        nprocs = int(sys.argv[1])
    else:
        nprocs = int(1)

    import ctypes
    mkl = ctypes.cdll.LoadLibrary('libmkl_rt.so')
    if nthreads > 0:
        mkl.MKL_Set_Num_Threads(nthreads)

    from euphonic.data.interpolation import InterpolationData
    import numpy as np
    seedname = 'Nb-242424-s0.25-NCP19-vib-disp'

#    qpts = np.tile(np.loadtxt('10meV_qpts.txt'), (5,1))
    qpts = np.load('../../50000_qpts.npy')
    idata = InterpolationData(seedname)
    N = 1
    print(('Calculating phonons for {:s}\nN qpts: {:d}\nN repeats: {:d}\nN '
           'cpus: {:d}\n N threads: {:d}').format(seedname, len(qpts), N,
                                                  nprocs, nthreads))
    for i in range(N):
        idata.calculate_fine_phonons(qpts, asr='reciprocal', nprocs=nprocs)
    print('Freqs for qpt 5000:')
    print(idata.freqs[5000])

if __name__ == '__main__':
    main()
